[gd_scene load_steps=2 format=2]

[ext_resource path="res://time.gd" type="Script" id=1]

[node name="time" type="TextureProgress"]
margin_right = 311.0
margin_bottom = 32.0
value = 100.0
script = ExtResource( 1 )
__meta__ = {
"_edit_use_anchors_": false
}

[node name="Timer" type="Timer" parent="."]

[node name="TextureRect" type="TextureRect" parent="."]
margin_left = -32.0
margin_bottom = 32.0
__meta__ = {
"_edit_use_anchors_": false
}

[node name="Tween" type="Tween" parent="."]
[connection signal="timeout" from="Timer" to="." method="_on_Timer_timeout"]
[connection signal="tween_step" from="Tween" to="." method="_on_Tween_tween_step"]
