[gd_scene load_steps=5 format=2]

[ext_resource path="res://TouchesDecor/Esc.png" type="Texture" id=1]
[ext_resource path="res://TouchesDecor/Up.png" type="Texture" id=2]
[ext_resource path="res://TouchesDecor/Space.png" type="Texture" id=3]
[ext_resource path="res://TouchesDecor/Dash.png" type="Texture" id=4]

[node name="florilegeDeTouches" type="Node2D"]

[node name="Sable01" type="Sprite" parent="."]
texture = ExtResource( 1 )

[node name="Sable02" type="Sprite" parent="."]
position = Vector2( 72, 0 )
texture = ExtResource( 2 )

[node name="Sable03" type="Sprite" parent="."]
position = Vector2( 0, 72 )
texture = ExtResource( 3 )

[node name="Sable04" type="Sprite" parent="."]
position = Vector2( 0, 144 )
texture = ExtResource( 4 )
