[gd_scene load_steps=4 format=2]

[ext_resource path="res://Pause.gd" type="Script" id=1]
[ext_resource path="res://font/Restart.png" type="Texture" id=2]
[ext_resource path="res://font/Quit.png" type="Texture" id=3]

[node name="PauseLayer" type="CanvasLayer"]
layer = 100

[node name="Pause" type="Control" parent="."]
pause_mode = 2
visible = false
anchor_right = 1.0
anchor_bottom = 1.0
script = ExtResource( 1 )
__meta__ = {
"_edit_use_anchors_": false
}

[node name="Overlay" type="ColorRect" parent="Pause"]
anchor_right = 1.0
anchor_bottom = 1.0
color = Color( 0.772549, 0.52549, 0, 0.364706 )
__meta__ = {
"_edit_use_anchors_": false
}

[node name="Sprite" type="Sprite" parent="Pause"]
position = Vector2( 975.94, 742.182 )
scale = Vector2( 0.7, 0.7 )
texture = ExtResource( 3 )

[node name="Sprite2" type="Sprite" parent="Pause"]
position = Vector2( 958.408, 395.441 )
texture = ExtResource( 2 )
