[gd_scene load_steps=5 format=2]

[ext_resource path="res://portePetiteAvecSerrure.gd" type="Script" id=1]
[ext_resource path="res://Sprites/porte sable avec serrure.png" type="Texture" id=2]
[ext_resource path="res://Sound Design de Qolosqur/2. Bruitages de Qolosqur/9. Serrure.wav" type="AudioStream" id=3]

[sub_resource type="RectangleShape2D" id=1]
extents = Vector2( 70.2294, 90.2592 )

[node name="porteAvecSerrure" type="Area2D"]
script = ExtResource( 1 )

[node name="Sprite" type="Sprite" parent="."]
texture = ExtResource( 2 )

[node name="CollisionShape2D" type="CollisionShape2D" parent="."]
shape = SubResource( 1 )

[node name="Serrure" type="AudioStreamPlayer2D" parent="."]
stream = ExtResource( 3 )
