[gd_resource type="AnimatedTexture" load_steps=30 format=2]

[ext_resource path="res://TuileSable/Chutes/Calque #37.png" type="Texture" id=1]
[ext_resource path="res://TuileSable/Chutes/Calque #32.png" type="Texture" id=2]
[ext_resource path="res://TuileSable/Chutes/Calque #39.png" type="Texture" id=3]
[ext_resource path="res://TuileSable/Chutes/Calque #40.png" type="Texture" id=4]
[ext_resource path="res://TuileSable/Chutes/Calque #33.png" type="Texture" id=5]
[ext_resource path="res://TuileSable/Chutes/Calque #41.png" type="Texture" id=6]
[ext_resource path="res://TuileSable/Chutes/Calque #35.png" type="Texture" id=7]
[ext_resource path="res://TuileSable/Chutes/Calque #38.png" type="Texture" id=8]
[ext_resource path="res://TuileSable/Chutes/Calque #31.png" type="Texture" id=9]
[ext_resource path="res://TuileSable/Chutes/Calque #34.png" type="Texture" id=10]
[ext_resource path="res://TuileSable/Chutes/Calque #36.png" type="Texture" id=11]
[ext_resource path="res://TuileSable/Chutes/Calque #44.png" type="Texture" id=12]
[ext_resource path="res://TuileSable/Chutes/Calque #52.png" type="Texture" id=13]
[ext_resource path="res://TuileSable/Chutes/Calque #47.png" type="Texture" id=14]
[ext_resource path="res://TuileSable/Chutes/Calque #42.png" type="Texture" id=15]
[ext_resource path="res://TuileSable/Chutes/Calque #56.png" type="Texture" id=16]
[ext_resource path="res://TuileSable/Chutes/Calque #51.png" type="Texture" id=17]
[ext_resource path="res://TuileSable/Chutes/Calque #45.png" type="Texture" id=18]
[ext_resource path="res://TuileSable/Chutes/Calque #48.png" type="Texture" id=19]
[ext_resource path="res://TuileSable/Chutes/Calque #43.png" type="Texture" id=20]
[ext_resource path="res://TuileSable/Chutes/Calque #46.png" type="Texture" id=21]
[ext_resource path="res://TuileSable/Chutes/Calque #53.png" type="Texture" id=22]
[ext_resource path="res://TuileSable/Chutes/Calque #54.png" type="Texture" id=23]
[ext_resource path="res://TuileSable/Chutes/Calque #50.png" type="Texture" id=24]
[ext_resource path="res://TuileSable/Chutes/Calque #57.png" type="Texture" id=25]
[ext_resource path="res://TuileSable/Chutes/Calque #55.png" type="Texture" id=26]
[ext_resource path="res://TuileSable/Chutes/Calque #49.png" type="Texture" id=27]
[ext_resource path="res://TuileSable/Chutes/Calque #59.png" type="Texture" id=28]
[ext_resource path="res://TuileSable/Chutes/Calque #58.png" type="Texture" id=29]

[resource]
flags = 4
frames = 29
fps = 10.0
frame_0/texture = ExtResource( 9 )
frame_1/texture = ExtResource( 2 )
frame_1/delay_sec = 0.0
frame_2/texture = ExtResource( 5 )
frame_2/delay_sec = 0.0
frame_3/texture = ExtResource( 10 )
frame_3/delay_sec = 0.0
frame_4/texture = ExtResource( 7 )
frame_4/delay_sec = 0.0
frame_5/texture = ExtResource( 11 )
frame_5/delay_sec = 0.0
frame_6/texture = ExtResource( 1 )
frame_6/delay_sec = 0.0
frame_7/texture = ExtResource( 8 )
frame_7/delay_sec = 0.0
frame_8/texture = ExtResource( 3 )
frame_8/delay_sec = 0.0
frame_9/texture = ExtResource( 4 )
frame_9/delay_sec = 0.0
frame_10/texture = ExtResource( 6 )
frame_10/delay_sec = 0.0
frame_11/texture = ExtResource( 15 )
frame_11/delay_sec = 0.0
frame_12/texture = ExtResource( 20 )
frame_12/delay_sec = 0.0
frame_13/texture = ExtResource( 12 )
frame_13/delay_sec = 0.0
frame_14/texture = ExtResource( 18 )
frame_14/delay_sec = 0.0
frame_15/texture = ExtResource( 21 )
frame_15/delay_sec = 0.0
frame_16/texture = ExtResource( 14 )
frame_16/delay_sec = 0.0
frame_17/texture = ExtResource( 19 )
frame_17/delay_sec = 0.0
frame_18/texture = ExtResource( 27 )
frame_18/delay_sec = 0.0
frame_19/texture = ExtResource( 24 )
frame_19/delay_sec = 0.0
frame_20/texture = ExtResource( 17 )
frame_20/delay_sec = 0.0
frame_21/texture = ExtResource( 13 )
frame_21/delay_sec = 0.0
frame_22/texture = ExtResource( 22 )
frame_22/delay_sec = 0.0
frame_23/texture = ExtResource( 23 )
frame_23/delay_sec = 0.0
frame_24/texture = ExtResource( 26 )
frame_24/delay_sec = 0.0
frame_25/texture = ExtResource( 16 )
frame_25/delay_sec = 0.0
frame_26/texture = ExtResource( 25 )
frame_26/delay_sec = 0.0
frame_27/texture = ExtResource( 29 )
frame_27/delay_sec = 0.0
frame_28/texture = ExtResource( 28 )
frame_28/delay_sec = 0.0
